[ 
    {
        "id": 1,
        "employeeName": "Vinicius",
        "age": "25",
        "salary": "1200"
    },
    {
        "id": 2,
        "employeeName": "Amanda",
        "age": "23",
        "salary": "3800"
    }
]